vhdl work "C:\Users\Monica\Documents\Uni\COMP\final4\rn_table.vhd"
vhdl work "C:\Users\Monica\Documents\Uni\COMP\final4\mux_2to1_1b.vhd"
vhdl work "C:\Users\Monica\Documents\Uni\COMP\final4\sign_extend_4to16.vhd"
vhdl work "C:\Users\Monica\Documents\Uni\COMP\final4\register_file.vhd"
vhdl work "C:\Users\Monica\Documents\Uni\COMP\final4\program_counter.vhd"
vhdl work "C:\Users\Monica\Documents\Uni\COMP\final4\mux_2to1_4b.vhd"
vhdl work "C:\Users\Monica\Documents\Uni\COMP\final4\mux_2to1_16b.vhd"
vhdl work "C:\Users\Monica\Documents\Uni\COMP\final4\MEM_WB_reg.vhd"
vhdl work "C:\Users\Monica\Documents\Uni\COMP\final4\instruction_memory.vhd"
vhdl work "C:\Users\Monica\Documents\Uni\COMP\final4\IF_ID_reg.vhd"
vhdl work "C:\Users\Monica\Documents\Uni\COMP\final4\ID_EX_reg.vhd"
vhdl work "C:\Users\Monica\Documents\Uni\COMP\final4\hazard_detection.vhd"
vhdl work "C:\Users\Monica\Documents\Uni\COMP\final4\forwarding_unit.vhd"
vhdl work "C:\Users\Monica\Documents\Uni\COMP\final4\EX_MEM_reg.vhd"
vhdl work "C:\Users\Monica\Documents\Uni\COMP\final4\control_unit2.vhd"
vhdl work "C:\Users\Monica\Documents\Uni\COMP\final4\comparator.vhd"
vhdl work "C:\Users\Monica\Documents\Uni\COMP\final4\adder_4b.vhd"
vhdl work "C:\Users\Monica\Documents\Uni\COMP\final4\adder_16b.vhd"
vhdl work "C:\Users\Monica\Documents\Uni\COMP\final4\single_cycle_core.vhd"
